cpu_simulation.vcd
$date
	Sat Mar 22 15:00:53 2025
$end
$version
	Icarus Verilog
$end
$timescale
	1ns
$end
$scope module tb_riscv_sc $end
$var reg 1 ! clk $end
$var reg 1 " start $end
$scope module riscv_DUT $end
$var wire 1 ! clk $end
$var wire 1 # jump_sel $end
$var wire 1 " start $end
$var wire 1 $ zero_flag $end
$var wire 32 % write_data [31:0] $end
$var wire 1 & reg_write $end
$var wire 32 ' read_data2 [31:0] $end
$var wire 32 ( read_data1 [31:0] $end
$var wire 32 ) pc_plus4 [31:0] $end
$var wire 32 * pc_next [31:0] $end
$var wire 32 + pc_current [31:0] $end
$var wire 1 , mem_write $end
$var wire 1 - mem_to_reg $end
$var wire 32 . mem_read_data [31:0] $end
$var wire 1 / mem_read $end
$var wire 1 0 is_jal $end
$var wire 1 1 is_branch_type $end
$var wire 32 2 instruction [31:0] $end
$var wire 32 3 imm_gen_out_shifted [31:0] $end
$var wire 32 4 imm_gen_out [31:0] $end
$var wire 32 5 effective_imm [31:0] $end
$var wire 32 6 branch_target [31:0] $end
$var wire 1 7 branch $end
$var wire 1 8 alu_src $end
$var wire 32 9 alu_result [31:0] $end
$var wire 32 : alu_or_jal [31:0] $end
$var wire 32 ; alu_operand2 [31:0] $end
$var wire 2 < alu_op [1:0] $end
$var wire 4 = alu_control [3:0] $end
$scope module m_ALU $end
$var wire 1 $ zero $end
$var wire 32 > B [31:0] $end
$var wire 4 ? ALUCtl [3:0] $end
$var wire 32 @ A [31:0] $end
$var parameter 4 A ALU_ADD $end
$var parameter 4 B ALU_AND $end
$var parameter 4 C ALU_OR $end
$var parameter 4 D ALU_SLL $end
$var parameter 4 E ALU_SLT $end
$var parameter 4 F ALU_SLTU $end
$var parameter 4 G ALU_SRA $end
$var parameter 4 H ALU_SRL $end
$var parameter 4 I ALU_SUB $end
$var parameter 4 J ALU_XOR $end
$var reg 32 K ALUOut [31:0] $end
$scope function countTrailingZeros $end
$var reg 32 L val [31:0] $end
$var integer 32 M i [31:0] $end
$upscope $end
$upscope $end
$scope module m_ALUCtrl $end
$var wire 3 N funct3 [2:0] $end
$var wire 1 O funct7 $end
$var wire 2 P ALUOp [1:0] $end
$var parameter 4 Q ALU_ADD $end
$var parameter 4 R ALU_AND $end
$var parameter 4 S ALU_OR $end
$var parameter 4 T ALU_SLL $end
$var parameter 4 U ALU_SLT $end
$var parameter 4 V ALU_SLTU $end
$var parameter 4 W ALU_SRA $end
$var parameter 4 X ALU_SRL $end
$var parameter 4 Y ALU_SUB $end
$var parameter 4 Z ALU_XOR $end
$var reg 4 [ ALUCtl [3:0] $end
$upscope $end
$scope module m_Adder_Branch $end
$var wire 32 \ b [31:0] $end
$var wire 32 ] sum [31:0] $end
$var wire 32 ^ a [31:0] $end
$upscope $end
$scope module m_Adder_NextPC $end
$var wire 32 _ b [31:0] $end
$var wire 32 ` sum [31:0] $end
$var wire 32 a a [31:0] $end
$upscope $end
$scope module m_Control $end
$var wire 3 b funct3 [2:0] $end
$var wire 7 c opcode [6:0] $end
$var parameter 7 d OP_AUIPC $end
$var parameter 7 e OP_BRANCH $end
$var parameter 7 f OP_ITYPE $end
$var parameter 7 g OP_JAL $end
$var parameter 7 h OP_JALR $end
$var parameter 7 i OP_LOAD $end
$var parameter 7 j OP_LUI $end
$var parameter 7 k OP_RTYPE $end
$var parameter 7 l OP_STORE $end
$var reg 2 m ALUOp [1:0] $end
$var reg 1 8 ALUSrc $end
$var reg 1 7 branch $end
$var reg 1 n jump $end
$var reg 1 / memRead $end
$var reg 1 , memWrite $end
$var reg 1 - memtoReg $end
$var reg 1 & regWrite $end
$upscope $end
$scope module m_ImmGen $end
$var wire 7 o opcode [6:0] $end
$var wire 32 p instruction [31:0] $end
$var parameter 32 q Width $end
$var reg 32 r imm [31:0] $end
$upscope $end
$scope module m_InstMem $end
$var wire 32 s readAddr [31:0] $end
$var wire 32 t inst [31:0] $end
$upscope $end
$scope module m_Mux_ALU $end
$var wire 32 u s1 [31:0] $end
$var wire 1 8 sel $end
$var wire 32 v s0 [31:0] $end
$var wire 32 w out [31:0] $end
$var parameter 32 x size $end
$upscope $end
$scope module m_Mux_PC $end
$var wire 32 y s0 [31:0] $end
$var wire 32 z s1 [31:0] $end
$var wire 1 # sel $end
$var wire 32 { out [31:0] $end
$var parameter 32 | size $end
$upscope $end
$scope module m_Mux_WriteData $end
$var wire 1 - sel $end
$var wire 32 } s1 [31:0] $end
$var wire 32 ~ s0 [31:0] $end
$var wire 32 !" out [31:0] $end
$var parameter 32 "" size $end
$upscope $end
$scope module m_PC $end
$var wire 1 ! clk $end
$var wire 32 #" pc_i [31:0] $end
$var wire 1 " rst $end
$var reg 32 $" pc_o [31:0] $end
$upscope $end
$scope module m_Register $end
$var wire 1 ! clk $end
$var wire 5 %" readReg1 [4:0] $end
$var wire 5 &" readReg2 [4:0] $end
$var wire 1 & regWrite $end
$var wire 1 " rst $end
$var wire 32 '" writeData [31:0] $end
$var wire 5 (" writeReg [4:0] $end
$var wire 32 )" readData2 [31:0] $end
$var wire 32 *" readData1 [31:0] $end
$upscope $end
$scope module m_ShiftLeftOne $end
$var wire 32 +" i [31:0] $end
$var wire 32 ," o [31:0] $end
$upscope $end
$scope module m_WrapperMem $end
$var wire 32 -" address [31:0] $end
$var wire 1 ! clk $end
$var wire 3 ." funct3 [2:0] $end
$var wire 1 / memRead $end
$var wire 1 , memWrite $end
$var wire 32 /" readData [31:0] $end
$var wire 1 " rst $end
$var wire 32 0" writeData [31:0] $end
$var wire 32 1" mem_read_data [31:0] $end
$var wire 2 2" byteOffset [1:0] $end
$var reg 32 3" finalReadData [31:0] $end
$var reg 32 4" mem_write_data [31:0] $end
$var reg 1 5" mem_write_en $end
$var reg 32 6" modifiedWord [31:0] $end
$scope module dataMem_inst $end
$var wire 32 7" address [31:0] $end
$var wire 1 ! clk $end
$var wire 1 / memRead $end
$var wire 1 5" memWrite $end
$var wire 1 " rst $end
$var wire 32 8" writeData [31:0] $end
$var reg 32 9" readData [31:0] $end
$upscope $end
$upscope $end
$scope module mux_jal $end
$var wire 32 :" s0 [31:0] $end
$var wire 32 ;" s1 [31:0] $end
$var wire 1 0 sel $end
$var wire 32 <" out [31:0] $end
$var parameter 32 =" size $end
$upscope $end
$upscope $end
$upscope $end
$enddefinitions $end
$comment Show the parameter values. $end
$dumpall
b100000 ="
b100000 ""
b100000 |
b100000 x
b100000 q
b100011 l
b110011 k
b110111 j
b11 i
b1100111 h
b1101111 g
b10011 f
b1100011 e
b10111 d
b100 Z
b1 Y
b110 X
b111 W
b1001 V
b1000 U
b101 T
b11 S
b10 R
b0 Q
b100 J
b1 I
b110 H
b111 G
b1001 F
b1000 E
b101 D
b11 C
b10 B
b0 A
$end
#0
$dumpvars
bx <"
bx ;"
bx :"
bx 9"
bx 8"
bx 7"
bx 6"
x5"
bx 4"
bx 3"
bx 2"
bx 1"
bx 0"
bx /"
bx ."
bx -"
bx0 ,"
bx +"
bx *"
bx )"
bx ("
bx '"
bx &"
bx %"
bx $"
bx #"
bx !"
bx ~
bx }
bx {
bx z
bx y
bx w
bx v
bx u
bx t
bx s
bx r
bx p
bx o
xn
bx m
bx c
bx b
bx a
bx `
b100 _
bx ^
bx ]
bx \
bx [
bx P
xO
bx N
bx M
bx L
bx K
bx @
bx ?
bx >
bx =
bx <
bx ;
bx :
bx 9
x8
x7
bx 6
bx 5
bx 4
bx0 3
bx 2
x1
x0
x/
bx .
x-
x,
bx +
bx *
bx )
bx (
bx '
x&
bx %
x$
x#
0"
0!
$end
#5
b10100011 %
b10100011 !"
b10100011 '"
b11 2"
b10100011 :
b10100011 ~
b10100011 <"
0#
0$
b10100011 9
b10100011 K
b10100011 -"
b10100011 7"
b10100011 :"
b10100011 ;
b10100011 >
b10100011 w
b100 *
b100 {
b100 #"
05"
b0 4"
b0 8"
b0 =
b0 ?
b0 [
b0 '
b0 v
b0 )"
b0 0"
b0 (
b0 @
b0 *"
b0 <
b0 P
b0 m
0n
1&
18
0,
0-
0/
07
b101000110 3
b101000110 ,"
b10100011 6
b10100011 ]
b10100011 z
b10100011 5
b10100011 \
b10011 o
b0 ."
0O
b0 N
01
b1000 ("
b11 &"
b0 %"
b0 b
b10011 c
00
b10100011 4
b10100011 r
b10100011 u
b10100011 +"
b0 .
b0 }
b0 /"
b0 3"
b1010001100000000010000010011 2
b1010001100000000010000010011 p
b1010001100000000010000010011 t
b0 1"
b0 9"
b100 )
b100 `
b100 y
b100 ;"
b0 +
b0 ^
b0 a
b0 s
b0 $"
1!
#10
0!
1"
#15
b1111100 %
b1111100 !"
b1111100 '"
b0 2"
b1111100 :
b1111100 ~
b1111100 <"
b1111100 9
b1111100 K
b1111100 -"
b1111100 7"
b1111100 :"
b10000000 (
b10000000 @
b10000000 *"
b11111111111111111111111111111100 ;
b11111111111111111111111111111100 >
b11111111111111111111111111111100 w
b11111111111111111111111111111000 3
b11111111111111111111111111111000 ,"
b11111111111111111111111111111100 5
b11111111111111111111111111111100 \
1O
b10 ("
b11100 &"
b10 %"
b11111111111111111111111111111100 4
b11111111111111111111111111111100 r
b11111111111111111111111111111100 u
b11111111111111111111111111111100 +"
b11111111110000010000000100010011 2
b11111111110000010000000100010011 p
b11111111110000010000000100010011 t
b1000 *
b1000 {
b1000 #"
b1000 )
b1000 `
b1000 y
b1000 ;"
b0 6
b0 ]
b0 z
b100 +
b100 ^
b100 a
b100 s
b100 $"
1!
#20
0!
#25
b1111100 %
b1111100 !"
b1111100 '"
15"
b10100011 4"
b10100011 8"
b10100011 '
b10100011 v
b10100011 )"
b10100011 0"
1,
0&
18
b0 ;
b0 >
b0 w
b0 3
b0 ,"
b0 5
b0 \
b1111100 :
b1111100 ~
b1111100 <"
b100011 o
b10 ."
0O
b10 N
b0 ("
b1000 &"
b10 b
b100011 c
b0 4
b0 r
b0 u
b0 +"
b1111100 9
b1111100 K
b1111100 -"
b1111100 7"
b1111100 :"
b100000010010000000100011 2
b100000010010000000100011 p
b100000010010000000100011 t
b1100 *
b1100 {
b1100 #"
b1111100 (
b1111100 @
b1111100 *"
b1100 )
b1100 `
b1100 y
b1100 ;"
b1000 6
b1000 ]
b1000 z
b1000 +
b1000 ^
b1000 a
b1000 s
b1000 $"
1!
#30
0!
#35
b0 %
b0 !"
b0 '"
1$
b0 :
b0 ~
b0 <"
b0 9
b0 K
b0 -"
b0 7"
b0 :"
05"
b0 4"
b0 8"
b0 '
b0 v
b0 )"
b0 0"
b0 (
b0 @
b0 *"
b10 <
b10 P
b10 m
1&
08
0,
b0 ;
b0 >
b0 w
b0 3
b0 ,"
b0 5
b0 \
b110011 o
b0 ."
b0 N
b1000 ("
b0 &"
b0 %"
b0 b
b110011 c
b0 4
b0 r
b0 u
b0 +"
b10000110011 2
b10000110011 p
b10000110011 t
b10000 *
b10000 {
b10000 #"
b10000 )
b10000 `
b10000 y
b10000 ;"
b1100 6
b1100 ]
b1100 z
b1100 +
b1100 ^
b1100 a
b1100 s
b1100 $"
1!
#40
0!
#45
18
b0 <
b0 P
b0 m
1&
b10011 o
b101 ("
b10011 c
b1010010011 2
b1010010011 p
b1010010011 t
b10100 *
b10100 {
b10100 #"
b10100 )
b10100 `
b10100 y
b10100 ;"
b10000 6
b10000 ]
b10000 z
b10000 +
b10000 ^
b10000 a
b10000 s
b10000 $"
1!
#50
0!
#55
b1 %
b1 !"
b1 '"
b1 2"
b1 :
b1 ~
b1 <"
0$
b1 9
b1 K
b1 -"
b1 7"
b1 :"
b1000 =
b1000 ?
b1000 [
b10 <
b10 P
b10 m
1&
18
b111 ;
b111 >
b111 w
b1110 3
b1110 ,"
b111 5
b111 \
b10 ."
b10 N
b110 ("
b111 &"
b101 %"
b10 b
b111 4
b111 r
b111 u
b111 +"
b11100101010001100010011 2
b11100101010001100010011 p
b11100101010001100010011 t
b11000 *
b11000 {
b11000 #"
b11000 )
b11000 `
b11000 y
b11000 ;"
b11011 6
b11011 ]
b11011 z
b10100 +
b10100 ^
b10100 a
b10100 s
b10100 $"
1!
#60
0!
#65
b1 =
b1 ?
b1 [
b1 (
b1 @
b1 *"
17
b1 <
b1 P
b1 m
0&
08
b0 ;
b0 >
b0 w
b1100 3
b1100 ,"
b1100 5
b1100 \
b1100011 o
b0 ."
b0 N
11
b1100 ("
b0 &"
b110 %"
b0 b
b1100011 c
b110 4
b110 r
b110 u
b110 +"
b110000011001100011 2
b110000011001100011 p
b110000011001100011 t
b11100 *
b11100 {
b11100 #"
b11100 )
b11100 `
b11100 y
b11100 ;"
b100100 6
b100100 ]
b100100 z
b11000 +
b11000 ^
b11000 a
b11000 s
b11000 $"
1!
#70
0!
#75
b1 ;
b1 >
b1 w
b0 =
b0 ?
b0 [
b1 5
b1 \
b0 (
b0 @
b0 *"
18
1&
b0 <
b0 P
b0 m
07
b10 3
b10 ,"
b10011 o
01
b101 ("
b1 &"
b101 %"
b10011 c
b1 4
b1 r
b1 u
b1 +"
b100101000001010010011 2
b100101000001010010011 p
b100101000001010010011 t
b100000 *
b100000 {
b100000 #"
b100000 )
b100000 `
b100000 y
b100000 ;"
b11101 6
b11101 ]
b11101 z
b11100 +
b11100 ^
b11100 a
b11100 s
b11100 $"
1!
#80
0!
#85
1#
1$
b0 %
b0 !"
b0 '"
b1 =
b1 ?
b1 [
b1 <
b1 P
b1 m
17
0&
08
b0 ;
b0 >
b0 w
b11111111111111111111111111110100 3
b11111111111111111111111111110100 ,"
b11111111111111111111111111110100 5
b11111111111111111111111111110100 \
b0 2"
b0 :
b0 ~
b0 <"
b1100011 o
1O
11
b10101 ("
b0 &"
b0 %"
b1100011 c
b1111111111111111111111111111010 4
b1111111111111111111111111111010 r
b1111111111111111111111111111010 u
b1111111111111111111111111111010 +"
b0 9
b0 K
b0 -"
b0 7"
b0 :"
b11111110000000000000101011100011 2
b11111110000000000000101011100011 p
b11111110000000000000101011100011 t
b10100 *
b10100 {
b10100 #"
b0 (
b0 @
b0 *"
b100100 )
b100100 `
b100100 y
b100100 ;"
b10100 6
b10100 ]
b10100 z
b100000 +
b100000 ^
b100000 a
b100000 s
b100000 $"
1!
#90
0!
#95
b1 %
b1 !"
b1 '"
b1 2"
b1 :
b1 ~
b1 <"
0#
0$
b1 9
b1 K
b1 -"
b1 7"
b1 :"
b111 ;
b111 >
b111 w
b1000 =
b1000 ?
b1000 [
b111 5
b111 \
b1 (
b1 @
b1 *"
18
1&
b10 <
b10 P
b10 m
07
b1110 3
b1110 ,"
b10011 o
b10 ."
0O
b10 N
01
b110 ("
b111 &"
b101 %"
b10 b
b10011 c
b111 4
b111 r
b111 u
b111 +"
b11100101010001100010011 2
b11100101010001100010011 p
b11100101010001100010011 t
b11000 *
b11000 {
b11000 #"
b11000 )
b11000 `
b11000 y
b11000 ;"
b11011 6
b11011 ]
b11011 z
b10100 +
b10100 ^
b10100 a
b10100 s
b10100 $"
1!
#100
0!
#105
b1 =
b1 ?
b1 [
17
b1 <
b1 P
b1 m
0&
08
b0 ;
b0 >
b0 w
b1100 3
b1100 ,"
b1100 5
b1100 \
b1100011 o
b0 ."
b0 N
11
b1100 ("
b0 &"
b110 %"
b0 b
b1100011 c
b110 4
b110 r
b110 u
b110 +"
b110000011001100011 2
b110000011001100011 p
b110000011001100011 t
b11100 *
b11100 {
b11100 #"
b11100 )
b11100 `
b11100 y
b11100 ;"
b100100 6
b100100 ]
b100100 z
b11000 +
b11000 ^
b11000 a
b11000 s
b11000 $"
1!
#110
0!
#115
b10 %
b10 !"
b10 '"
b10 2"
b10 :
b10 ~
b10 <"
b10 9
b10 K
b10 -"
b10 7"
b10 :"
b1 ;
b1 >
b1 w
b0 =
b0 ?
b0 [
b1 5
b1 \
18
1&
b0 <
b0 P
b0 m
07
b10 3
b10 ,"
b10011 o
01
b101 ("
b1 &"
b101 %"
b10011 c
b1 4
b1 r
b1 u
b1 +"
b100101000001010010011 2
b100101000001010010011 p
b100101000001010010011 t
b100000 *
b100000 {
b100000 #"
b100000 )
b100000 `
b100000 y
b100000 ;"
b11101 6
b11101 ]
b11101 z
b11100 +
b11100 ^
b11100 a
b11100 s
b11100 $"
1!
#120
0!
#125
1#
1$
b0 %
b0 !"
b0 '"
b1 =
b1 ?
b1 [
b1 <
b1 P
b1 m
17
0&
08
b0 ;
b0 >
b0 w
b11111111111111111111111111110100 3
b11111111111111111111111111110100 ,"
b11111111111111111111111111110100 5
b11111111111111111111111111110100 \
b0 2"
b0 :
b0 ~
b0 <"
b1100011 o
1O
11
b10101 ("
b0 &"
b0 %"
b1100011 c
b1111111111111111111111111111010 4
b1111111111111111111111111111010 r
b1111111111111111111111111111010 u
b1111111111111111111111111111010 +"
b0 9
b0 K
b0 -"
b0 7"
b0 :"
b11111110000000000000101011100011 2
b11111110000000000000101011100011 p
b11111110000000000000101011100011 t
b10100 *
b10100 {
b10100 #"
b0 (
b0 @
b0 *"
b100100 )
b100100 `
b100100 y
b100100 ;"
b10100 6
b10100 ]
b10100 z
b100000 +
b100000 ^
b100000 a
b100000 s
b100000 $"
1!
#130
0!
#135
b1 %
b1 !"
b1 '"
b1 2"
b1 :
b1 ~
b1 <"
0#
0$
b1 9
b1 K
b1 -"
b1 7"
b1 :"
b111 ;
b111 >
b111 w
b1000 =
b1000 ?
b1000 [
b111 5
b111 \
b10 (
b10 @
b10 *"
18
1&
b10 <
b10 P
b10 m
07
b1110 3
b1110 ,"
b10011 o
b10 ."
0O
b10 N
01
b110 ("
b111 &"
b101 %"
b10 b
b10011 c
b111 4
b111 r
b111 u
b111 +"
b11100101010001100010011 2
b11100101010001100010011 p
b11100101010001100010011 t
b11000 *
b11000 {
b11000 #"
b11000 )
b11000 `
b11000 y
b11000 ;"
b11011 6
b11011 ]
b11011 z
b10100 +
b10100 ^
b10100 a
b10100 s
b10100 $"
1!
#140
0!
#145
b1 =
b1 ?
b1 [
b1 (
b1 @
b1 *"
17
b1 <
b1 P
b1 m
0&
08
b0 ;
b0 >
b0 w
b1100 3
b1100 ,"
b1100 5
b1100 \
b1100011 o
b0 ."
b0 N
11
b1100 ("
b0 &"
b110 %"
b0 b
b1100011 c
b110 4
b110 r
b110 u
b110 +"
b110000011001100011 2
b110000011001100011 p
b110000011001100011 t
b11100 *
b11100 {
b11100 #"
b11100 )
b11100 `
b11100 y
b11100 ;"
b100100 6
b100100 ]
b100100 z
b11000 +
b11000 ^
b11000 a
b11000 s
b11000 $"
1!
#150
0!
#155
b11 %
b11 !"
b11 '"
b11 2"
b11 :
b11 ~
b11 <"
b11 9
b11 K
b11 -"
b11 7"
b11 :"
b1 ;
b1 >
b1 w
b0 =
b0 ?
b0 [
b1 5
b1 \
b10 (
b10 @
b10 *"
18
1&
b0 <
b0 P
b0 m
07
b10 3
b10 ,"
b10011 o
01
b101 ("
b1 &"
b101 %"
b10011 c
b1 4
b1 r
b1 u
b1 +"
b100101000001010010011 2
b100101000001010010011 p
b100101000001010010011 t
b100000 *
b100000 {
b100000 #"
b100000 )
b100000 `
b100000 y
b100000 ;"
b11101 6
b11101 ]
b11101 z
b11100 +
b11100 ^
b11100 a
b11100 s
b11100 $"
1!
#160
0!
#165
1#
1$
b0 %
b0 !"
b0 '"
b1 =
b1 ?
b1 [
b1 <
b1 P
b1 m
17
0&
08
b0 ;
b0 >
b0 w
b11111111111111111111111111110100 3
b11111111111111111111111111110100 ,"
b11111111111111111111111111110100 5
b11111111111111111111111111110100 \
b0 2"
b0 :
b0 ~
b0 <"
b1100011 o
1O
11
b10101 ("
b0 &"
b0 %"
b1100011 c
b1111111111111111111111111111010 4
b1111111111111111111111111111010 r
b1111111111111111111111111111010 u
b1111111111111111111111111111010 +"
b0 9
b0 K
b0 -"
b0 7"
b0 :"
b11111110000000000000101011100011 2
b11111110000000000000101011100011 p
b11111110000000000000101011100011 t
b10100 *
b10100 {
b10100 #"
b0 (
b0 @
b0 *"
b100100 )
b100100 `
b100100 y
b100100 ;"
b10100 6
b10100 ]
b10100 z
b100000 +
b100000 ^
b100000 a
b100000 s
b100000 $"
1!
#170
0!
#175
b1 %
b1 !"
b1 '"
b1 2"
b1 :
b1 ~
b1 <"
0#
0$
b1 9
b1 K
b1 -"
b1 7"
b1 :"
b111 ;
b111 >
b111 w
b1000 =
b1000 ?
b1000 [
b111 5
b111 \
b11 (
b11 @
b11 *"
18
1&
b10 <
b10 P
b10 m
07
b1110 3
b1110 ,"
b10011 o
b10 ."
0O
b10 N
01
b110 ("
b111 &"
b101 %"
b10 b
b10011 c
b111 4
b111 r
b111 u
b111 +"
b11100101010001100010011 2
b11100101010001100010011 p
b11100101010001100010011 t
b11000 *
b11000 {
b11000 #"
b11000 )
b11000 `
b11000 y
b11000 ;"
b11011 6
b11011 ]
b11011 z
b10100 +
b10100 ^
b10100 a
b10100 s
b10100 $"
1!
#180
0!
#185
b1 =
b1 ?
b1 [
b1 (
b1 @
b1 *"
17
b1 <
b1 P
b1 m
0&
08
b0 ;
b0 >
b0 w
b1100 3
b1100 ,"
b1100 5
b1100 \
b1100011 o
b0 ."
b0 N
11
b1100 ("
b0 &"
b110 %"
b0 b
b1100011 c
b110 4
b110 r
b110 u
b110 +"
b110000011001100011 2
b110000011001100011 p
b110000011001100011 t
b11100 *
b11100 {
b11100 #"
b11100 )
b11100 `
b11100 y
b11100 ;"
b100100 6
b100100 ]
b100100 z
b11000 +
b11000 ^
b11000 a
b11000 s
b11000 $"
1!
#190
0!
#195
b100 %
b100 !"
b100 '"
b0 2"
b100 :
b100 ~
b100 <"
b100 9
b100 K
b100 -"
b100 7"
b100 :"
b1 ;
b1 >
b1 w
b0 =
b0 ?
b0 [
b1 5
b1 \
b11 (
b11 @
b11 *"
18
1&
b0 <
b0 P
b0 m
07
b10 3
b10 ,"
b10011 o
01
b101 ("
b1 &"
b101 %"
b10011 c
b1 4
b1 r
b1 u
b1 +"
b100101000001010010011 2
b100101000001010010011 p
b100101000001010010011 t
b100000 *
b100000 {
b100000 #"
b100000 )
b100000 `
b100000 y
b100000 ;"
b11101 6
b11101 ]
b11101 z
b11100 +
b11100 ^
b11100 a
b11100 s
b11100 $"
1!
#200
0!
#205
1#
1$
b0 %
b0 !"
b0 '"
b1 =
b1 ?
b1 [
b1 <
b1 P
b1 m
17
0&
08
b0 ;
b0 >
b0 w
b11111111111111111111111111110100 3
b11111111111111111111111111110100 ,"
b11111111111111111111111111110100 5
b11111111111111111111111111110100 \
b0 2"
b0 :
b0 ~
b0 <"
b1100011 o
1O
11
b10101 ("
b0 &"
b0 %"
b1100011 c
b1111111111111111111111111111010 4
b1111111111111111111111111111010 r
b1111111111111111111111111111010 u
b1111111111111111111111111111010 +"
b0 9
b0 K
b0 -"
b0 7"
b0 :"
b11111110000000000000101011100011 2
b11111110000000000000101011100011 p
b11111110000000000000101011100011 t
b10100 *
b10100 {
b10100 #"
b0 (
b0 @
b0 *"
b100100 )
b100100 `
b100100 y
b100100 ;"
b10100 6
b10100 ]
b10100 z
b100000 +
b100000 ^
b100000 a
b100000 s
b100000 $"
1!
#210
0!
#215
b1 %
b1 !"
b1 '"
b1 2"
b1 :
b1 ~
b1 <"
0#
0$
b1 9
b1 K
b1 -"
b1 7"
b1 :"
b111 ;
b111 >
b111 w
b1000 =
b1000 ?
b1000 [
b111 5
b111 \
b100 (
b100 @
b100 *"
18
1&
b10 <
b10 P
b10 m
07
b1110 3
b1110 ,"
b10011 o
b10 ."
0O
b10 N
01
b110 ("
b111 &"
b101 %"
b10 b
b10011 c
b111 4
b111 r
b111 u
b111 +"
b11100101010001100010011 2
b11100101010001100010011 p
b11100101010001100010011 t
b11000 *
b11000 {
b11000 #"
b11000 )
b11000 `
b11000 y
b11000 ;"
b11011 6
b11011 ]
b11011 z
b10100 +
b10100 ^
b10100 a
b10100 s
b10100 $"
1!
#220
0!
#225
b1 =
b1 ?
b1 [
b1 (
b1 @
b1 *"
17
b1 <
b1 P
b1 m
0&
08
b0 ;
b0 >
b0 w
b1100 3
b1100 ,"
b1100 5
b1100 \
b1100011 o
b0 ."
b0 N
11
b1100 ("
b0 &"
b110 %"
b0 b
b1100011 c
b110 4
b110 r
b110 u
b110 +"
b110000011001100011 2
b110000011001100011 p
b110000011001100011 t
b11100 *
b11100 {
b11100 #"
b11100 )
b11100 `
b11100 y
b11100 ;"
b100100 6
b100100 ]
b100100 z
b11000 +
b11000 ^
b11000 a
b11000 s
b11000 $"
1!
#230
0!
#235
b101 %
b101 !"
b101 '"
b101 :
b101 ~
b101 <"
b101 9
b101 K
b101 -"
b101 7"
b101 :"
b1 ;
b1 >
b1 w
b0 =
b0 ?
b0 [
b1 5
b1 \
b100 (
b100 @
b100 *"
18
1&
b0 <
b0 P
b0 m
07
b10 3
b10 ,"
b10011 o
01
b101 ("
b1 &"
b101 %"
b10011 c
b1 4
b1 r
b1 u
b1 +"
b100101000001010010011 2
b100101000001010010011 p
b100101000001010010011 t
b100000 *
b100000 {
b100000 #"
b100000 )
b100000 `
b100000 y
b100000 ;"
b11101 6
b11101 ]
b11101 z
b11100 +
b11100 ^
b11100 a
b11100 s
b11100 $"
1!
#240
0!
#245
1#
1$
b0 %
b0 !"
b0 '"
b1 =
b1 ?
b1 [
b1 <
b1 P
b1 m
17
0&
08
b0 ;
b0 >
b0 w
b11111111111111111111111111110100 3
b11111111111111111111111111110100 ,"
b11111111111111111111111111110100 5
b11111111111111111111111111110100 \
b0 2"
b0 :
b0 ~
b0 <"
b1100011 o
1O
11
b10101 ("
b0 &"
b0 %"
b1100011 c
b1111111111111111111111111111010 4
b1111111111111111111111111111010 r
b1111111111111111111111111111010 u
b1111111111111111111111111111010 +"
b0 9
b0 K
b0 -"
b0 7"
b0 :"
b11111110000000000000101011100011 2
b11111110000000000000101011100011 p
b11111110000000000000101011100011 t
b10100 *
b10100 {
b10100 #"
b0 (
b0 @
b0 *"
b100100 )
b100100 `
b100100 y
b100100 ;"
b10100 6
b10100 ]
b10100 z
b100000 +
b100000 ^
b100000 a
b100000 s
b100000 $"
1!
#250
0!
#255
b1 %
b1 !"
b1 '"
b1 2"
b1 :
b1 ~
b1 <"
0#
0$
b1 9
b1 K
b1 -"
b1 7"
b1 :"
b111 ;
b111 >
b111 w
b1000 =
b1000 ?
b1000 [
b111 5
b111 \
b101 (
b101 @
b101 *"
18
1&
b10 <
b10 P
b10 m
07
b1110 3
b1110 ,"
b10011 o
b10 ."
0O
b10 N
01
b110 ("
b111 &"
b101 %"
b10 b
b10011 c
b111 4
b111 r
b111 u
b111 +"
b11100101010001100010011 2
b11100101010001100010011 p
b11100101010001100010011 t
b11000 *
b11000 {
b11000 #"
b11000 )
b11000 `
b11000 y
b11000 ;"
b11011 6
b11011 ]
b11011 z
b10100 +
b10100 ^
b10100 a
b10100 s
b10100 $"
1!
#260
0!
#265
b1 =
b1 ?
b1 [
b1 (
b1 @
b1 *"
17
b1 <
b1 P
b1 m
0&
08
b0 ;
b0 >
b0 w
b1100 3
b1100 ,"
b1100 5
b1100 \
b1100011 o
b0 ."
b0 N
11
b1100 ("
b0 &"
b110 %"
b0 b
b1100011 c
b110 4
b110 r
b110 u
b110 +"
b110000011001100011 2
b110000011001100011 p
b110000011001100011 t
b11100 *
b11100 {
b11100 #"
b11100 )
b11100 `
b11100 y
b11100 ;"
b100100 6
b100100 ]
b100100 z
b11000 +
b11000 ^
b11000 a
b11000 s
b11000 $"
1!
#270
0!
#275
b110 %
b110 !"
b110 '"
b10 2"
b110 :
b110 ~
b110 <"
b110 9
b110 K
b110 -"
b110 7"
b110 :"
b1 ;
b1 >
b1 w
b0 =
b0 ?
b0 [
b1 5
b1 \
b101 (
b101 @
b101 *"
18
1&
b0 <
b0 P
b0 m
07
b10 3
b10 ,"
b10011 o
01
b101 ("
b1 &"
b101 %"
b10011 c
b1 4
b1 r
b1 u
b1 +"
b100101000001010010011 2
b100101000001010010011 p
b100101000001010010011 t
b100000 *
b100000 {
b100000 #"
b100000 )
b100000 `
b100000 y
b100000 ;"
b11101 6
b11101 ]
b11101 z
b11100 +
b11100 ^
b11100 a
b11100 s
b11100 $"
1!
#280
0!
#285
1#
1$
b0 %
b0 !"
b0 '"
b1 =
b1 ?
b1 [
b1 <
b1 P
b1 m
17
0&
08
b0 ;
b0 >
b0 w
b11111111111111111111111111110100 3
b11111111111111111111111111110100 ,"
b11111111111111111111111111110100 5
b11111111111111111111111111110100 \
b0 2"
b0 :
b0 ~
b0 <"
b1100011 o
1O
11
b10101 ("
b0 &"
b0 %"
b1100011 c
b1111111111111111111111111111010 4
b1111111111111111111111111111010 r
b1111111111111111111111111111010 u
b1111111111111111111111111111010 +"
b0 9
b0 K
b0 -"
b0 7"
b0 :"
b11111110000000000000101011100011 2
b11111110000000000000101011100011 p
b11111110000000000000101011100011 t
b10100 *
b10100 {
b10100 #"
b0 (
b0 @
b0 *"
b100100 )
b100100 `
b100100 y
b100100 ;"
b10100 6
b10100 ]
b10100 z
b100000 +
b100000 ^
b100000 a
b100000 s
b100000 $"
1!
#290
0!
