cpu_simulation.vcd
$date
	Fri Mar 21 21:39:34 2025
$end
$version
	Icarus Verilog
$end
$timescale
	1ns
$end
$scope module tb_riscv_sc $end
$var reg 1 ! clk $end
$var reg 1 " start $end
$scope module riscv_DUT $end
$var wire 1 ! clk $end
$var wire 1 # jump_sel $end
$var wire 1 " start $end
$var wire 1 $ zero_flag $end
$var wire 32 % write_data [31:0] $end
$var wire 1 & reg_write $end
$var wire 32 ' read_data2 [31:0] $end
$var wire 32 ( read_data1 [31:0] $end
$var wire 32 ) pc_plus4 [31:0] $end
$var wire 32 * pc_next [31:0] $end
$var wire 32 + pc_current [31:0] $end
$var wire 1 , mem_write $end
$var wire 1 - mem_to_reg $end
$var wire 32 . mem_read_data [31:0] $end
$var wire 1 / mem_read $end
$var wire 1 0 is_jal $end
$var wire 32 1 instruction [31:0] $end
$var wire 32 2 imm_gen_out_shifted [31:0] $end
$var wire 32 3 imm_gen_out [31:0] $end
$var wire 32 4 effective_imm [31:0] $end
$var wire 32 5 branch_target [31:0] $end
$var wire 1 6 branch_inst $end
$var wire 1 7 branch $end
$var wire 1 8 alu_src $end
$var wire 32 9 alu_result [31:0] $end
$var wire 32 : alu_or_jal [31:0] $end
$var wire 32 ; alu_operand2 [31:0] $end
$var wire 2 < alu_op [1:0] $end
$var wire 4 = alu_control [3:0] $end
$scope module m_ALU $end
$var wire 1 $ zero $end
$var wire 32 > B [31:0] $end
$var wire 4 ? ALUCtl [3:0] $end
$var wire 32 @ A [31:0] $end
$var parameter 4 A ADD $end
$var parameter 4 B AND $end
$var parameter 4 C CTZ $end
$var parameter 4 D OR $end
$var parameter 4 E SLL $end
$var parameter 4 F SLT $end
$var parameter 4 G SUB $end
$var reg 32 H ALUOut [31:0] $end
$scope function countTrailingZeros $end
$var reg 32 I val [31:0] $end
$var integer 32 J i [31:0] $end
$upscope $end
$upscope $end
$scope module m_ALUCtrl $end
$var wire 3 K funct3 [2:0] $end
$var wire 1 L funct7 $end
$var wire 2 M ALUOp [1:0] $end
$var reg 4 N ALUCtl [3:0] $end
$upscope $end
$scope module m_Adder_1 $end
$var wire 32 O b [31:0] $end
$var wire 32 P sum [31:0] $end
$var wire 32 Q a [31:0] $end
$upscope $end
$scope module m_Adder_2 $end
$var wire 32 R b [31:0] $end
$var wire 32 S sum [31:0] $end
$var wire 32 T a [31:0] $end
$upscope $end
$scope module m_Control $end
$var wire 3 U funct3 [2:0] $end
$var wire 7 V opcode [6:0] $end
$var reg 2 W ALUOp [1:0] $end
$var reg 1 8 ALUSrc $end
$var reg 1 7 branch $end
$var reg 1 / memRead $end
$var reg 1 , memWrite $end
$var reg 1 - memtoReg $end
$var reg 1 & regWrite $end
$upscope $end
$scope module m_DataMemory $end
$var wire 32 X address [31:0] $end
$var wire 1 ! clk $end
$var wire 1 / memRead $end
$var wire 1 , memWrite $end
$var wire 1 " rst $end
$var wire 32 Y writeData [31:0] $end
$var reg 32 Z readData [31:0] $end
$upscope $end
$scope module m_ImmGen $end
$var wire 7 [ opcode [6:0] $end
$var wire 32 \ inst [31:0] $end
$var parameter 32 ] Width $end
$var reg 32 ^ imm [31:0] $end
$upscope $end
$scope module m_InstMem $end
$var wire 32 _ readAddr [31:0] $end
$var wire 32 ` inst [31:0] $end
$upscope $end
$scope module m_Mux_ALU $end
$var wire 32 a s1 [31:0] $end
$var wire 1 8 sel $end
$var wire 32 b s0 [31:0] $end
$var wire 32 c out [31:0] $end
$var parameter 32 d size $end
$upscope $end
$scope module m_Mux_PC $end
$var wire 32 e s0 [31:0] $end
$var wire 32 f s1 [31:0] $end
$var wire 1 # sel $end
$var wire 32 g out [31:0] $end
$var parameter 32 h size $end
$upscope $end
$scope module m_Mux_WriteData $end
$var wire 32 i s1 [31:0] $end
$var wire 1 - sel $end
$var wire 32 j s0 [31:0] $end
$var wire 32 k out [31:0] $end
$var parameter 32 l size $end
$upscope $end
$scope module m_PC $end
$var wire 1 ! clk $end
$var wire 32 m pc_i [31:0] $end
$var wire 1 " rst $end
$var reg 32 n pc_o [31:0] $end
$upscope $end
$scope module m_Register $end
$var wire 1 ! clk $end
$var wire 5 o readReg1 [4:0] $end
$var wire 5 p readReg2 [4:0] $end
$var wire 1 & regWrite $end
$var wire 1 " rst $end
$var wire 32 q writeData [31:0] $end
$var wire 5 r writeReg [4:0] $end
$var wire 32 s readData2 [31:0] $end
$var wire 32 t readData1 [31:0] $end
$upscope $end
$scope module m_ShiftLeftOne $end
$var wire 32 u i [31:0] $end
$var wire 32 v o [31:0] $end
$upscope $end
$scope module mux_jal $end
$var wire 32 w s0 [31:0] $end
$var wire 32 x s1 [31:0] $end
$var wire 1 0 sel $end
$var wire 32 y out [31:0] $end
$var parameter 32 z size $end
$upscope $end
$upscope $end
$upscope $end
$enddefinitions $end
$comment Show the parameter values. $end
$dumpall
b100000 z
b100000 l
b100000 h
b100000 d
b100000 ]
b110 G
b111 F
b1000 E
b1 D
b1010 C
b0 B
b10 A
$end
#0
$dumpvars
bx y
bx x
bx w
bx0 v
bx u
bx t
bx s
bx r
bx q
bx p
bx o
bx n
bx m
bx k
bx j
bx i
bx g
bx f
bx e
bx c
bx b
bx a
bx `
bx _
bx ^
bx \
bx [
bx Z
bx Y
bx X
bx W
bx V
bx U
bx T
bx S
bx R
bx Q
bx P
b100 O
bx N
bx M
xL
bx K
bx J
bx I
bx H
bx @
bx ?
bx >
bx =
bx <
bx ;
bx :
bx 9
x8
x7
x6
bx 5
bx 4
bx 3
bx0 2
bx 1
x0
x/
bx .
x-
x,
bx +
bx *
bx )
bx (
bx '
x&
bx %
x$
x#
0"
0!
$end
#5
b10100011 %
b10100011 k
b10100011 q
b100 *
b100 g
b100 m
b10100011 :
b10100011 j
b10100011 y
0#
b101000110 5
b101000110 S
b101000110 f
0$
b10100011 9
b10100011 H
b10100011 X
b10100011 w
b10100011 ;
b10100011 >
b10100011 c
b10 =
b10 ?
b10 N
b0 '
b0 Y
b0 b
b0 s
b0 (
b0 @
b0 t
07
0,
0/
1&
0-
18
b0 <
b0 M
b0 W
b101000110 2
b101000110 v
b101000110 4
b101000110 R
b10011 [
b0 K
0L
b1000 r
b11 p
b0 o
b0 U
b10011 V
00
06
b10100011 3
b10100011 ^
b10100011 a
b10100011 u
b1010001100000000010000010011 1
b1010001100000000010000010011 \
b1010001100000000010000010011 `
b0 .
b0 Z
b0 i
b100 )
b100 P
b100 e
b100 x
b0 +
b0 Q
b0 T
b0 _
b0 n
1!
#10
0!
1"
#15
b1111100 %
b1111100 k
b1111100 q
b1111100 :
b1111100 j
b1111100 y
b11111111111111111111111111111000 4
b11111111111111111111111111111000 R
b1111100 9
b1111100 H
b1111100 X
b1111100 w
b10000000 (
b10000000 @
b10000000 t
b11111111111111111111111111111100 ;
b11111111111111111111111111111100 >
b11111111111111111111111111111100 c
b11111111111111111111111111111000 2
b11111111111111111111111111111000 v
1L
b10 r
b11100 p
b10 o
b11111111111111111111111111111100 3
b11111111111111111111111111111100 ^
b11111111111111111111111111111100 a
b11111111111111111111111111111100 u
b11111111110000010000000100010011 1
b11111111110000010000000100010011 \
b11111111110000010000000100010011 `
b1000 *
b1000 g
b1000 m
b11111111111111111111111111111100 5
b11111111111111111111111111111100 S
b11111111111111111111111111111100 f
b1000 )
b1000 P
b1000 e
b1000 x
b100 +
b100 Q
b100 T
b100 _
b100 n
1!
#20
0!
#25
b0 4
b0 R
b0xxxxx00 %
b0xxxxx00 k
b0xxxxx00 q
b10100011 '
b10100011 Y
b10100011 b
b10100011 s
1,
0&
x-
b0 ;
b0 >
b0 c
b0 2
b0 v
b1111100 :
b1111100 j
b1111100 y
b100011 [
b10 K
0L
b0 r
b1000 p
b10 U
b100011 V
b0 3
b0 ^
b0 a
b0 u
b1111100 9
b1111100 H
b1111100 X
b1111100 w
b100000010010000000100011 1
b100000010010000000100011 \
b100000010010000000100011 `
b1100 *
b1100 g
b1100 m
b1111100 (
b1111100 @
b1111100 t
b1000 5
b1000 S
b1000 f
b1100 )
b1100 P
b1100 e
b1100 x
b1000 +
b1000 Q
b1000 T
b1000 _
b1000 n
1!
#30
0!
#35
1$
b0 :
b0 j
b0 y
b0 4
b0 R
b0 %
b0 k
b0 q
b0 9
b0 H
b0 X
b0 w
b0 '
b0 Y
b0 b
b0 s
b0 (
b0 @
b0 t
0,
1&
0-
08
b10 <
b10 M
b10 W
b0 ;
b0 >
b0 c
b0 2
b0 v
b110011 [
b0 K
b1000 r
b0 p
b0 o
b0 U
b110011 V
b0 3
b0 ^
b0 a
b0 u
b10000110011 1
b10000110011 \
b10000110011 `
b10000 *
b10000 g
b10000 m
b1100 5
b1100 S
b1100 f
b10000 )
b10000 P
b10000 e
b10000 x
b1100 +
b1100 Q
b1100 T
b1100 _
b1100 n
1!
#40
0!
#45
18
b0 <
b0 M
b0 W
b10011 [
b101 r
b10011 V
b1010010011 1
b1010010011 \
b1010010011 `
b10100 *
b10100 g
b10100 m
b10000 5
b10000 S
b10000 f
b10100 )
b10100 P
b10100 e
b10100 x
b10000 +
b10000 Q
b10000 T
b10000 _
b10000 n
1!
#50
0!
#55
b1 %
b1 k
b1 q
b1 :
b1 j
b1 y
b1110 4
b1110 R
0$
b1 9
b1 H
b1 X
b1 w
b111 =
b111 ?
b111 N
b10 <
b10 M
b10 W
b111 ;
b111 >
b111 c
b1110 2
b1110 v
b10 K
b110 r
b111 p
b101 o
b10 U
b111 3
b111 ^
b111 a
b111 u
b11100101010001100010011 1
b11100101010001100010011 \
b11100101010001100010011 `
b11000 *
b11000 g
b11000 m
b100010 5
b100010 S
b100010 f
b11000 )
b11000 P
b11000 e
b11000 x
b10100 +
b10100 Q
b10100 T
b10100 _
b10100 n
1!
#60
0!
#65
b0x %
b0x k
b0x q
b110 =
b110 ?
b110 N
b1 (
b1 @
b1 t
17
0&
x-
08
b1 <
b1 M
b1 W
b1100 4
b1100 R
b0 ;
b0 >
b0 c
b11000 2
b11000 v
b1100011 [
b0 K
b1100 r
b0 p
b110 o
b0 U
b1100011 V
16
b1100 3
b1100 ^
b1100 a
b1100 u
b110000011001100011 1
b110000011001100011 \
b110000011001100011 `
b11100 *
b11100 g
b11100 m
b100100 5
b100100 S
b100100 f
b11100 )
b11100 P
b11100 e
b11100 x
b11000 +
b11000 Q
b11000 T
b11000 _
b11000 n
1!
#70
0!
#75
b1 %
b1 k
b1 q
b1 ;
b1 >
b1 c
b10 =
b10 ?
b10 N
b0 (
b0 @
b0 t
07
1&
0-
18
b0 <
b0 M
b0 W
b10 2
b10 v
b10 4
b10 R
b10011 [
b101 r
b1 p
b101 o
b10011 V
06
b1 3
b1 ^
b1 a
b1 u
b100101000001010010011 1
b100101000001010010011 \
b100101000001010010011 `
b100000 *
b100000 g
b100000 m
b11110 5
b11110 S
b11110 f
b100000 )
b100000 P
b100000 e
b100000 x
b11100 +
b11100 Q
b11100 T
b11100 _
b11100 n
1!
#80
0!
#85
1#
1$
b0 %
b0 k
b0 q
b110 =
b110 ?
b110 N
17
0&
x-
08
b1 <
b1 M
b1 W
b11111111111111111111111111110100 4
b11111111111111111111111111110100 R
b0 ;
b0 >
b0 c
b11111111111111111111111111101000 2
b11111111111111111111111111101000 v
b0 :
b0 j
b0 y
b1100011 [
1L
b10101 r
b0 p
b0 o
b1100011 V
16
b11111111111111111111111111110100 3
b11111111111111111111111111110100 ^
b11111111111111111111111111110100 a
b11111111111111111111111111110100 u
b0 9
b0 H
b0 X
b0 w
b11111110000000000000101011100011 1
b11111110000000000000101011100011 \
b11111110000000000000101011100011 `
b10100 *
b10100 g
b10100 m
b0 (
b0 @
b0 t
b10100 5
b10100 S
b10100 f
b100100 )
b100100 P
b100100 e
b100100 x
b100000 +
b100000 Q
b100000 T
b100000 _
b100000 n
1!
#90
0!
#95
b1 %
b1 k
b1 q
b1 :
b1 j
b1 y
0#
0$
b1 9
b1 H
b1 X
b1 w
b111 ;
b111 >
b111 c
b111 =
b111 ?
b111 N
b1 (
b1 @
b1 t
07
1&
0-
18
b10 <
b10 M
b10 W
b1110 2
b1110 v
b1110 4
b1110 R
b10011 [
b10 K
0L
b110 r
b111 p
b101 o
b10 U
b10011 V
06
b111 3
b111 ^
b111 a
b111 u
b11100101010001100010011 1
b11100101010001100010011 \
b11100101010001100010011 `
b11000 *
b11000 g
b11000 m
b100010 5
b100010 S
b100010 f
b11000 )
b11000 P
b11000 e
b11000 x
b10100 +
b10100 Q
b10100 T
b10100 _
b10100 n
1!
#100
0!
#105
b0x %
b0x k
b0x q
b110 =
b110 ?
b110 N
17
0&
x-
08
b1 <
b1 M
b1 W
b1100 4
b1100 R
b0 ;
b0 >
b0 c
b11000 2
b11000 v
b1100011 [
b0 K
b1100 r
b0 p
b110 o
b0 U
b1100011 V
16
b1100 3
b1100 ^
b1100 a
b1100 u
b110000011001100011 1
b110000011001100011 \
b110000011001100011 `
b11100 *
b11100 g
b11100 m
b100100 5
b100100 S
b100100 f
b11100 )
b11100 P
b11100 e
b11100 x
b11000 +
b11000 Q
b11000 T
b11000 _
b11000 n
1!
#110
0!
#115
b10 :
b10 j
b10 y
b10 9
b10 H
b10 X
b10 w
b10 %
b10 k
b10 q
b1 ;
b1 >
b1 c
b10 =
b10 ?
b10 N
07
1&
0-
18
b0 <
b0 M
b0 W
b10 2
b10 v
b10 4
b10 R
b10011 [
b101 r
b1 p
b101 o
b10011 V
06
b1 3
b1 ^
b1 a
b1 u
b100101000001010010011 1
b100101000001010010011 \
b100101000001010010011 `
b100000 *
b100000 g
b100000 m
b11110 5
b11110 S
b11110 f
b100000 )
b100000 P
b100000 e
b100000 x
b11100 +
b11100 Q
b11100 T
b11100 _
b11100 n
1!
#120
0!
#125
1#
1$
b0 %
b0 k
b0 q
b110 =
b110 ?
b110 N
17
0&
x-
08
b1 <
b1 M
b1 W
b11111111111111111111111111110100 4
b11111111111111111111111111110100 R
b0 ;
b0 >
b0 c
b11111111111111111111111111101000 2
b11111111111111111111111111101000 v
b0 :
b0 j
b0 y
b1100011 [
1L
b10101 r
b0 p
b0 o
b1100011 V
16
b11111111111111111111111111110100 3
b11111111111111111111111111110100 ^
b11111111111111111111111111110100 a
b11111111111111111111111111110100 u
b0 9
b0 H
b0 X
b0 w
b11111110000000000000101011100011 1
b11111110000000000000101011100011 \
b11111110000000000000101011100011 `
b10100 *
b10100 g
b10100 m
b0 (
b0 @
b0 t
b10100 5
b10100 S
b10100 f
b100100 )
b100100 P
b100100 e
b100100 x
b100000 +
b100000 Q
b100000 T
b100000 _
b100000 n
1!
#130
0!
#135
b1 %
b1 k
b1 q
b1 :
b1 j
b1 y
0#
0$
b1 9
b1 H
b1 X
b1 w
b111 ;
b111 >
b111 c
b111 =
b111 ?
b111 N
b10 (
b10 @
b10 t
07
1&
0-
18
b10 <
b10 M
b10 W
b1110 2
b1110 v
b1110 4
b1110 R
b10011 [
b10 K
0L
b110 r
b111 p
b101 o
b10 U
b10011 V
06
b111 3
b111 ^
b111 a
b111 u
b11100101010001100010011 1
b11100101010001100010011 \
b11100101010001100010011 `
b11000 *
b11000 g
b11000 m
b100010 5
b100010 S
b100010 f
b11000 )
b11000 P
b11000 e
b11000 x
b10100 +
b10100 Q
b10100 T
b10100 _
b10100 n
1!
#140
0!
#145
b0x %
b0x k
b0x q
b110 =
b110 ?
b110 N
b1 (
b1 @
b1 t
17
0&
x-
08
b1 <
b1 M
b1 W
b1100 4
b1100 R
b0 ;
b0 >
b0 c
b11000 2
b11000 v
b1100011 [
b0 K
b1100 r
b0 p
b110 o
b0 U
b1100011 V
16
b1100 3
b1100 ^
b1100 a
b1100 u
b110000011001100011 1
b110000011001100011 \
b110000011001100011 `
b11100 *
b11100 g
b11100 m
b100100 5
b100100 S
b100100 f
b11100 )
b11100 P
b11100 e
b11100 x
b11000 +
b11000 Q
b11000 T
b11000 _
b11000 n
1!
#150
0!
#155
b11 :
b11 j
b11 y
b11 9
b11 H
b11 X
b11 w
b11 %
b11 k
b11 q
b1 ;
b1 >
b1 c
b10 =
b10 ?
b10 N
b10 (
b10 @
b10 t
07
1&
0-
18
b0 <
b0 M
b0 W
b10 2
b10 v
b10 4
b10 R
b10011 [
b101 r
b1 p
b101 o
b10011 V
06
b1 3
b1 ^
b1 a
b1 u
b100101000001010010011 1
b100101000001010010011 \
b100101000001010010011 `
b100000 *
b100000 g
b100000 m
b11110 5
b11110 S
b11110 f
b100000 )
b100000 P
b100000 e
b100000 x
b11100 +
b11100 Q
b11100 T
b11100 _
b11100 n
1!
#160
0!
#165
1#
1$
b0 %
b0 k
b0 q
b110 =
b110 ?
b110 N
17
0&
x-
08
b1 <
b1 M
b1 W
b11111111111111111111111111110100 4
b11111111111111111111111111110100 R
b0 ;
b0 >
b0 c
b11111111111111111111111111101000 2
b11111111111111111111111111101000 v
b0 :
b0 j
b0 y
b1100011 [
1L
b10101 r
b0 p
b0 o
b1100011 V
16
b11111111111111111111111111110100 3
b11111111111111111111111111110100 ^
b11111111111111111111111111110100 a
b11111111111111111111111111110100 u
b0 9
b0 H
b0 X
b0 w
b11111110000000000000101011100011 1
b11111110000000000000101011100011 \
b11111110000000000000101011100011 `
b10100 *
b10100 g
b10100 m
b0 (
b0 @
b0 t
b10100 5
b10100 S
b10100 f
b100100 )
b100100 P
b100100 e
b100100 x
b100000 +
b100000 Q
b100000 T
b100000 _
b100000 n
1!
#170
0!
#175
b1 %
b1 k
b1 q
b1 :
b1 j
b1 y
0#
0$
b1 9
b1 H
b1 X
b1 w
b111 ;
b111 >
b111 c
b111 =
b111 ?
b111 N
b11 (
b11 @
b11 t
07
1&
0-
18
b10 <
b10 M
b10 W
b1110 2
b1110 v
b1110 4
b1110 R
b10011 [
b10 K
0L
b110 r
b111 p
b101 o
b10 U
b10011 V
06
b111 3
b111 ^
b111 a
b111 u
b11100101010001100010011 1
b11100101010001100010011 \
b11100101010001100010011 `
b11000 *
b11000 g
b11000 m
b100010 5
b100010 S
b100010 f
b11000 )
b11000 P
b11000 e
b11000 x
b10100 +
b10100 Q
b10100 T
b10100 _
b10100 n
1!
#180
0!
#185
b0x %
b0x k
b0x q
b110 =
b110 ?
b110 N
b1 (
b1 @
b1 t
17
0&
x-
08
b1 <
b1 M
b1 W
b1100 4
b1100 R
b0 ;
b0 >
b0 c
b11000 2
b11000 v
b1100011 [
b0 K
b1100 r
b0 p
b110 o
b0 U
b1100011 V
16
b1100 3
b1100 ^
b1100 a
b1100 u
b110000011001100011 1
b110000011001100011 \
b110000011001100011 `
b11100 *
b11100 g
b11100 m
b100100 5
b100100 S
b100100 f
b11100 )
b11100 P
b11100 e
b11100 x
b11000 +
b11000 Q
b11000 T
b11000 _
b11000 n
1!
#190
0!
#195
b100 :
b100 j
b100 y
b100 9
b100 H
b100 X
b100 w
b100 %
b100 k
b100 q
b1 ;
b1 >
b1 c
b10 =
b10 ?
b10 N
b11 (
b11 @
b11 t
07
1&
0-
18
b0 <
b0 M
b0 W
b10 2
b10 v
b10 4
b10 R
b10011 [
b101 r
b1 p
b101 o
b10011 V
06
b1 3
b1 ^
b1 a
b1 u
b100101000001010010011 1
b100101000001010010011 \
b100101000001010010011 `
b100000 *
b100000 g
b100000 m
b11110 5
b11110 S
b11110 f
b100000 )
b100000 P
b100000 e
b100000 x
b11100 +
b11100 Q
b11100 T
b11100 _
b11100 n
1!
#200
0!
#205
1#
1$
b0 %
b0 k
b0 q
b110 =
b110 ?
b110 N
17
0&
x-
08
b1 <
b1 M
b1 W
b11111111111111111111111111110100 4
b11111111111111111111111111110100 R
b0 ;
b0 >
b0 c
b11111111111111111111111111101000 2
b11111111111111111111111111101000 v
b0 :
b0 j
b0 y
b1100011 [
1L
b10101 r
b0 p
b0 o
b1100011 V
16
b11111111111111111111111111110100 3
b11111111111111111111111111110100 ^
b11111111111111111111111111110100 a
b11111111111111111111111111110100 u
b0 9
b0 H
b0 X
b0 w
b11111110000000000000101011100011 1
b11111110000000000000101011100011 \
b11111110000000000000101011100011 `
b10100 *
b10100 g
b10100 m
b0 (
b0 @
b0 t
b10100 5
b10100 S
b10100 f
b100100 )
b100100 P
b100100 e
b100100 x
b100000 +
b100000 Q
b100000 T
b100000 _
b100000 n
1!
#210
0!
#215
b1 %
b1 k
b1 q
b1 :
b1 j
b1 y
0#
0$
b1 9
b1 H
b1 X
b1 w
b111 ;
b111 >
b111 c
b111 =
b111 ?
b111 N
b100 (
b100 @
b100 t
07
1&
0-
18
b10 <
b10 M
b10 W
b1110 2
b1110 v
b1110 4
b1110 R
b10011 [
b10 K
0L
b110 r
b111 p
b101 o
b10 U
b10011 V
06
b111 3
b111 ^
b111 a
b111 u
b11100101010001100010011 1
b11100101010001100010011 \
b11100101010001100010011 `
b11000 *
b11000 g
b11000 m
b100010 5
b100010 S
b100010 f
b11000 )
b11000 P
b11000 e
b11000 x
b10100 +
b10100 Q
b10100 T
b10100 _
b10100 n
1!
#220
0!
#225
b0x %
b0x k
b0x q
b110 =
b110 ?
b110 N
b1 (
b1 @
b1 t
17
0&
x-
08
b1 <
b1 M
b1 W
b1100 4
b1100 R
b0 ;
b0 >
b0 c
b11000 2
b11000 v
b1100011 [
b0 K
b1100 r
b0 p
b110 o
b0 U
b1100011 V
16
b1100 3
b1100 ^
b1100 a
b1100 u
b110000011001100011 1
b110000011001100011 \
b110000011001100011 `
b11100 *
b11100 g
b11100 m
b100100 5
b100100 S
b100100 f
b11100 )
b11100 P
b11100 e
b11100 x
b11000 +
b11000 Q
b11000 T
b11000 _
b11000 n
1!
#230
0!
#235
b101 :
b101 j
b101 y
b101 9
b101 H
b101 X
b101 w
b101 %
b101 k
b101 q
b1 ;
b1 >
b1 c
b10 =
b10 ?
b10 N
b100 (
b100 @
b100 t
07
1&
0-
18
b0 <
b0 M
b0 W
b10 2
b10 v
b10 4
b10 R
b10011 [
b101 r
b1 p
b101 o
b10011 V
06
b1 3
b1 ^
b1 a
b1 u
b100101000001010010011 1
b100101000001010010011 \
b100101000001010010011 `
b100000 *
b100000 g
b100000 m
b11110 5
b11110 S
b11110 f
b100000 )
b100000 P
b100000 e
b100000 x
b11100 +
b11100 Q
b11100 T
b11100 _
b11100 n
1!
#240
0!
#245
1#
1$
b0 %
b0 k
b0 q
b110 =
b110 ?
b110 N
17
0&
x-
08
b1 <
b1 M
b1 W
b11111111111111111111111111110100 4
b11111111111111111111111111110100 R
b0 ;
b0 >
b0 c
b11111111111111111111111111101000 2
b11111111111111111111111111101000 v
b0 :
b0 j
b0 y
b1100011 [
1L
b10101 r
b0 p
b0 o
b1100011 V
16
b11111111111111111111111111110100 3
b11111111111111111111111111110100 ^
b11111111111111111111111111110100 a
b11111111111111111111111111110100 u
b0 9
b0 H
b0 X
b0 w
b11111110000000000000101011100011 1
b11111110000000000000101011100011 \
b11111110000000000000101011100011 `
b10100 *
b10100 g
b10100 m
b0 (
b0 @
b0 t
b10100 5
b10100 S
b10100 f
b100100 )
b100100 P
b100100 e
b100100 x
b100000 +
b100000 Q
b100000 T
b100000 _
b100000 n
1!
#250
0!
#255
b1 %
b1 k
b1 q
b1 :
b1 j
b1 y
0#
0$
b1 9
b1 H
b1 X
b1 w
b111 ;
b111 >
b111 c
b111 =
b111 ?
b111 N
b101 (
b101 @
b101 t
07
1&
0-
18
b10 <
b10 M
b10 W
b1110 2
b1110 v
b1110 4
b1110 R
b10011 [
b10 K
0L
b110 r
b111 p
b101 o
b10 U
b10011 V
06
b111 3
b111 ^
b111 a
b111 u
b11100101010001100010011 1
b11100101010001100010011 \
b11100101010001100010011 `
b11000 *
b11000 g
b11000 m
b100010 5
b100010 S
b100010 f
b11000 )
b11000 P
b11000 e
b11000 x
b10100 +
b10100 Q
b10100 T
b10100 _
b10100 n
1!
#260
0!
#265
b0x %
b0x k
b0x q
b110 =
b110 ?
b110 N
b1 (
b1 @
b1 t
17
0&
x-
08
b1 <
b1 M
b1 W
b1100 4
b1100 R
b0 ;
b0 >
b0 c
b11000 2
b11000 v
b1100011 [
b0 K
b1100 r
b0 p
b110 o
b0 U
b1100011 V
16
b1100 3
b1100 ^
b1100 a
b1100 u
b110000011001100011 1
b110000011001100011 \
b110000011001100011 `
b11100 *
b11100 g
b11100 m
b100100 5
b100100 S
b100100 f
b11100 )
b11100 P
b11100 e
b11100 x
b11000 +
b11000 Q
b11000 T
b11000 _
b11000 n
1!
#270
0!
#275
b110 :
b110 j
b110 y
b110 9
b110 H
b110 X
b110 w
b110 %
b110 k
b110 q
b1 ;
b1 >
b1 c
b10 =
b10 ?
b10 N
b101 (
b101 @
b101 t
07
1&
0-
18
b0 <
b0 M
b0 W
b10 2
b10 v
b10 4
b10 R
b10011 [
b101 r
b1 p
b101 o
b10011 V
06
b1 3
b1 ^
b1 a
b1 u
b100101000001010010011 1
b100101000001010010011 \
b100101000001010010011 `
b100000 *
b100000 g
b100000 m
b11110 5
b11110 S
b11110 f
b100000 )
b100000 P
b100000 e
b100000 x
b11100 +
b11100 Q
b11100 T
b11100 _
b11100 n
1!
#280
0!
#285
1#
1$
b0 %
b0 k
b0 q
b110 =
b110 ?
b110 N
17
0&
x-
08
b1 <
b1 M
b1 W
b11111111111111111111111111110100 4
b11111111111111111111111111110100 R
b0 ;
b0 >
b0 c
b11111111111111111111111111101000 2
b11111111111111111111111111101000 v
b0 :
b0 j
b0 y
b1100011 [
1L
b10101 r
b0 p
b0 o
b1100011 V
16
b11111111111111111111111111110100 3
b11111111111111111111111111110100 ^
b11111111111111111111111111110100 a
b11111111111111111111111111110100 u
b0 9
b0 H
b0 X
b0 w
b11111110000000000000101011100011 1
b11111110000000000000101011100011 \
b11111110000000000000101011100011 `
b10100 *
b10100 g
b10100 m
b0 (
b0 @
b0 t
b10100 5
b10100 S
b10100 f
b100100 )
b100100 P
b100100 e
b100100 x
b100000 +
b100000 Q
b100000 T
b100000 _
b100000 n
1!
#290
0!
#295
b1 %
b1 k
b1 q
b1 :
b1 j
b1 y
0#
0$
b1 9
b1 H
b1 X
b1 w
b111 ;
b111 >
b111 c
b111 =
b111 ?
b111 N
b110 (
b110 @
b110 t
07
1&
0-
18
b10 <
b10 M
b10 W
b1110 2
b1110 v
b1110 4
b1110 R
b10011 [
b10 K
0L
b110 r
b111 p
b101 o
b10 U
b10011 V
06
b111 3
b111 ^
b111 a
b111 u
b11100101010001100010011 1
b11100101010001100010011 \
b11100101010001100010011 `
b11000 *
b11000 g
b11000 m
b100010 5
b100010 S
b100010 f
b11000 )
b11000 P
b11000 e
b11000 x
b10100 +
b10100 Q
b10100 T
b10100 _
b10100 n
1!
#300
0!
#305
b0x %
b0x k
b0x q
b110 =
b110 ?
b110 N
b1 (
b1 @
b1 t
17
0&
x-
08
b1 <
b1 M
b1 W
b1100 4
b1100 R
b0 ;
b0 >
b0 c
b11000 2
b11000 v
b1100011 [
b0 K
b1100 r
b0 p
b110 o
b0 U
b1100011 V
16
b1100 3
b1100 ^
b1100 a
b1100 u
b110000011001100011 1
b110000011001100011 \
b110000011001100011 `
b11100 *
b11100 g
b11100 m
b100100 5
b100100 S
b100100 f
b11100 )
b11100 P
b11100 e
b11100 x
b11000 +
b11000 Q
b11000 T
b11000 _
b11000 n
1!
#310
0!
#315
b111 :
b111 j
b111 y
b111 9
b111 H
b111 X
b111 w
b111 %
b111 k
b111 q
b1 ;
b1 >
b1 c
b10 =
b10 ?
b10 N
b110 (
b110 @
b110 t
07
1&
0-
18
b0 <
b0 M
b0 W
b10 2
b10 v
b10 4
b10 R
b10011 [
b101 r
b1 p
b101 o
b10011 V
06
b1 3
b1 ^
b1 a
b1 u
b100101000001010010011 1
b100101000001010010011 \
b100101000001010010011 `
b100000 *
b100000 g
b100000 m
b11110 5
b11110 S
b11110 f
b100000 )
b100000 P
b100000 e
b100000 x
b11100 +
b11100 Q
b11100 T
b11100 _
b11100 n
1!
#320
0!
#325
1#
1$
b0 %
b0 k
b0 q
b110 =
b110 ?
b110 N
17
0&
x-
08
b1 <
b1 M
b1 W
b11111111111111111111111111110100 4
b11111111111111111111111111110100 R
b0 ;
b0 >
b0 c
b11111111111111111111111111101000 2
b11111111111111111111111111101000 v
b0 :
b0 j
b0 y
b1100011 [
1L
b10101 r
b0 p
b0 o
b1100011 V
16
b11111111111111111111111111110100 3
b11111111111111111111111111110100 ^
b11111111111111111111111111110100 a
b11111111111111111111111111110100 u
b0 9
b0 H
b0 X
b0 w
b11111110000000000000101011100011 1
b11111110000000000000101011100011 \
b11111110000000000000101011100011 `
b10100 *
b10100 g
b10100 m
b0 (
b0 @
b0 t
b10100 5
b10100 S
b10100 f
b100100 )
b100100 P
b100100 e
b100100 x
b100000 +
b100000 Q
b100000 T
b100000 _
b100000 n
1!
#330
0!
#335
0#
b111 ;
b111 >
b111 c
b111 =
b111 ?
b111 N
b111 (
b111 @
b111 t
07
1&
0-
18
b10 <
b10 M
b10 W
b1110 2
b1110 v
b1110 4
b1110 R
b10011 [
b10 K
0L
b110 r
b111 p
b101 o
b10 U
b10011 V
06
b111 3
b111 ^
b111 a
b111 u
b11100101010001100010011 1
b11100101010001100010011 \
b11100101010001100010011 `
b11000 *
b11000 g
b11000 m
b100010 5
b100010 S
b100010 f
b11000 )
b11000 P
b11000 e
b11000 x
b10100 +
b10100 Q
b10100 T
b10100 _
b10100 n
1!
#340
0!
